[gd_scene load_steps=2 format=2]

[ext_resource path="res://Assets/PNG/Background/Background_01.png" type="Texture" id=1]

[node name="ParallaxBackground" type="ParallaxBackground"]

[node name="ParallaxLayer" type="ParallaxLayer" parent="."]
motion_mirroring = Vector2( 1570, 0 )

[node name="Sprite" type="Sprite" parent="ParallaxLayer"]
position = Vector2( 487.21, 317.213 )
scale = Vector2( 1.18199, 1.78667 )
texture = ExtResource( 1 )
